src/tb_fault_fsm.vcd
$date
	Sun Sep 21 11:44:29 2025
$end
$version
	Icarus Verilog
$end
$timescale
	1ps
$end
$scope module tb_fault_fsm $end
$var wire 1 ! warn $end
$var wire 2 " state [1:0] $end
$var wire 1 # shutdown $end
$var wire 1 $ fault $end
$var wire 8 % cnt_uv [7:0] $end
$var wire 8 & cnt_uc [7:0] $end
$var wire 8 ' cnt_ov [7:0] $end
$var wire 8 ( cnt_ot [7:0] $end
$var wire 3 ) active_fault_id [2:0] $end
$var reg 1 * clear_warning $end
$var reg 1 + clk $end
$var reg 1 , mask_ot $end
$var reg 1 - mask_ov $end
$var reg 1 . mask_uc $end
$var reg 1 / mask_uv $end
$var reg 1 0 ot $end
$var reg 1 1 ov $end
$var reg 1 2 rst_n $end
$var reg 1 3 uc $end
$var reg 1 4 uv $end
$var integer 32 5 csv [31:0] $end
$scope module uut $end
$var wire 1 6 a_ot $end
$var wire 1 7 a_ov $end
$var wire 1 8 a_uc $end
$var wire 1 9 a_uv $end
$var wire 1 * clear_warning $end
$var wire 1 + clk $end
$var wire 1 , mask_ot $end
$var wire 1 - mask_ov $end
$var wire 1 . mask_uc $end
$var wire 1 / mask_uv $end
$var wire 1 0 ot $end
$var wire 1 1 ov $end
$var wire 1 2 rst_n $end
$var wire 1 3 uc $end
$var wire 1 4 uv $end
$var reg 3 : active_fault_id [2:0] $end
$var reg 3 ; chosen_fault [2:0] $end
$var reg 8 < cnt_ot [7:0] $end
$var reg 8 = cnt_ov [7:0] $end
$var reg 8 > cnt_uc [7:0] $end
$var reg 8 ? cnt_uv [7:0] $end
$var reg 1 $ fault $end
$var reg 2 @ nxt_state [1:0] $end
$var reg 1 # shutdown $end
$var reg 2 A state [1:0] $end
$var reg 1 ! warn $end
$upscope $end
$upscope $end
$scope module tb_fault_fsm $end
$scope module uut $end
$upscope $end
$upscope $end
$enddefinitions $end
#0
$dumpvars
b0 A
b0 @
b0 ?
b0 >
b0 =
b0 <
b0 ;
b0 :
09
08
07
06
b10000000000000000000000000000011 5
04
03
02
01
00
0/
0.
0-
0,
0+
0*
b0 )
b0 (
b0 '
b0 &
b0 %
0$
0#
b0 "
0!
$end
#5000
1+
#10000
0+
#15000
1+
#20000
b100 )
b100 :
b100 ;
18
0+
13
12
#25000
b1 &
b1 >
1+
#30000
b0 )
b0 :
b0 ;
08
0+
03
#35000
b0 &
b0 >
1+
#40000
0+
#45000
1+
#50000
0+
#55000
1+
#60000
0+
#65000
1+
#70000
0+
#75000
1+
#80000
b10 )
b10 :
b10 ;
17
0+
11
#85000
b1 '
b1 =
1+
#90000
0+
#95000
b10 '
b10 =
1+
#100000
0+
#105000
b11 '
b11 =
1+
#110000
0+
#115000
b100 '
b100 =
1+
#120000
0+
#125000
b1 @
b101 '
b101 =
1+
#130000
0+
#135000
1!
b110 '
b110 =
b1 "
b1 A
1+
#140000
0+
#145000
1!
b111 '
b111 =
1+
#150000
0+
#155000
1!
b1000 '
b1000 =
1+
#160000
0+
#165000
1!
b1001 '
b1001 =
1+
#170000
0+
#175000
1!
b1010 '
b1010 =
1+
#180000
0+
#185000
1!
b1011 '
b1011 =
1+
#190000
0+
#195000
b10 @
1!
b1100 '
b1100 =
1+
#200000
0+
#205000
1$
0!
b10 "
b10 A
b1101 '
b1101 =
1+
#210000
0+
#215000
1$
b1110 '
b1110 =
1+
#220000
0+
#225000
1$
b1111 '
b1111 =
1+
#230000
0+
#235000
1$
b10000 '
b10000 =
1+
#240000
0+
#245000
1$
b10001 '
b10001 =
1+
#250000
0+
#255000
1$
b10010 '
b10010 =
1+
#260000
0+
#265000
1$
b10011 '
b10011 =
1+
#270000
0+
#275000
1$
b10100 '
b10100 =
1+
#280000
b0 @
b0 )
b0 :
b0 ;
1$
07
0+
1*
01
#285000
0$
b0 "
b0 A
b0 '
b0 =
1+
#290000
0+
#295000
1+
#300000
0+
0*
#305000
1+
#310000
0+
#315000
1+
#320000
0+
#325000
1+
#330000
0+
#335000
1+
#340000
0+
#345000
1+
#350000
b100 )
b100 :
b100 ;
18
0+
13
#355000
b1 &
b1 >
1+
#360000
0+
#365000
b10 &
b10 >
1+
#370000
0+
#375000
b11 &
b11 >
1+
#380000
0+
#385000
b100 &
b100 >
1+
#390000
0+
#395000
b1 @
b101 &
b101 >
1+
#400000
0+
#405000
1!
b1 "
b1 A
b110 &
b110 >
1+
#410000
0+
#415000
1!
b111 &
b111 >
1+
#420000
0+
#425000
1!
b1000 &
b1000 >
1+
#430000
0+
#435000
1!
b1001 &
b1001 >
1+
#440000
0+
#445000
1!
b1010 &
b1010 >
1+
#450000
0+
#455000
1!
b1011 &
b1011 >
1+
#460000
0+
#465000
b10 @
1!
b1100 &
b1100 >
1+
#470000
0+
#475000
1$
0!
b1101 &
b1101 >
b10 "
b10 A
1+
#480000
0+
#485000
1$
b1110 &
b1110 >
1+
#490000
0+
#495000
1$
b1111 &
b1111 >
1+
#500000
0+
#505000
1$
b10000 &
b10000 >
1+
#510000
0+
#515000
1$
b10001 &
b10001 >
1+
#520000
0+
#525000
1$
b10010 &
b10010 >
1+
#530000
0+
#535000
1$
b10011 &
b10011 >
1+
#540000
0+
#545000
1$
b10100 &
b10100 >
1+
#550000
0+
#555000
1$
b10101 &
b10101 >
1+
#560000
0+
#565000
1$
b10110 &
b10110 >
1+
#570000
0+
#575000
1$
b10111 &
b10111 >
1+
#580000
0+
#585000
1$
b11000 &
b11000 >
1+
#590000
0+
#595000
1$
b11001 &
b11001 >
1+
#600000
0+
#605000
1$
b11010 &
b11010 >
1+
#610000
0+
#615000
1$
b11011 &
b11011 >
1+
#620000
0+
#625000
1$
b11100 &
b11100 >
1+
#630000
0+
#635000
1$
b11101 &
b11101 >
1+
#640000
0+
#645000
b11 @
1$
b11110 &
b11110 >
1+
#650000
0+
#655000
1#
0$
b11111 &
b11111 >
b11 "
b11 A
1+
#660000
0+
#665000
1#
b100000 &
b100000 >
1+
#670000
0+
#675000
1#
b100001 &
b100001 >
1+
#680000
0+
#685000
1#
b100010 &
b100010 >
1+
#690000
0+
#695000
1#
b100011 &
b100011 >
1+
#700000
0+
#705000
1#
b100100 &
b100100 >
1+
#710000
0+
#715000
1#
b100101 &
b100101 >
1+
#720000
0+
#725000
1#
b100110 &
b100110 >
1+
#730000
0+
#735000
1#
b100111 &
b100111 >
1+
#740000
0+
#745000
1#
b101000 &
b101000 >
1+
#750000
b0 )
b0 :
1#
b0 ;
08
0+
03
#755000
1#
b0 &
b0 >
1+
#760000
0+
#765000
1+
#770000
0+
#775000
1+
#780000
0+
#785000
1+
#790000
0+
#795000
1+
#800000
0+
13
1.
#805000
1+
#810000
0+
#815000
1+
#820000
0+
#825000
1+
#830000
0+
#835000
1+
#840000
0+
#845000
1+
#850000
0+
#855000
1+
#860000
0+
#865000
1+
#870000
0+
#875000
1+
#880000
0+
#885000
1+
#890000
0+
#895000
1+
#900000
0+
#905000
1+
#910000
0+
#915000
1+
#920000
0+
#925000
1+
#930000
0+
#935000
1+
#940000
0+
#945000
1+
#950000
0+
#955000
1+
#960000
0+
#965000
1+
#970000
0+
#975000
1+
#980000
0+
#985000
1+
#990000
0+
#995000
1+
#1000000
0+
0.
03
